importData
…
percentages of racial groups

Goldberg_perc_race <- Goldberg_rutendo %>%
  group_by(w12Race_A) %>%
  tally  %>%
  mutate(percent=100* (n/sum(n))) %>%
  select(-n) %>%
  arrange(desc(percent))

## Warning: Factor `w12Race_A` contains implicit NA, consider using
## `forcats::fct_explicit_na`

Goldberg_perc_race

## # A tibble: 33 x 2
##    w12Race_A                           percent
##    <fct>                                 <dbl>
##  1 Caucasian                             31.4 
##  2 African American                       9.12
##  3 1/2 African American, 1/2 Caucasian    7.23
##  4 Hispanic                               6.92
##  5 Guatemalan                             6.92
##  6 Chinese                                6.60
##  7 <NA>                                   6.29
##  8 Vietnamese                             3.14
##  9 1/2 Caucasion, 1/2 Hispanic            3.14
## 10 Latino + Caucasian                     2.20
## #  with 23 more rows
…
